-------------------------------------------------------------------------------
Test set: Database.DatabaseManagerTest
-------------------------------------------------------------------------------
Tests run: 1, Failures: 0, Errors: 0, Skipped: 0, Time elapsed: 1.504 sec
